Lab 01: NathanIâ€™s Hot-Dog Eating Content
…
3.2 Wrangling

Filtering and indicator field

hot_dogs <- hot_dogs %>% 
  mutate(post_ifoce = year >= 1997) %>% 
  filter(year >= 1981 & gender == 'male')
hot_dogs

# A tibble: 37 x 5
    year gender name           num_eaten post_ifoce
   <dbl> <fct>  <chr>              <dbl> <lgl>     
 1  2017 male   Joey Chestnut         72 TRUE      
 2  2016 male   Joey Chestnut         70 TRUE      
 3  2015 male   Matthew Stonie        62 TRUE      
 4  2014 male   Joey Chestnut         61 TRUE      
 5  2013 male   Joey Chestnut         69 TRUE      
 6  2012 male   Joey Chestnut         68 TRUE      
 7  2011 male   Joey Chestnut         62 TRUE      
 8  2010 male   Joey Chestnut         54 TRUE      
 9  2009 male   Joey Chestnut         68 TRUE      
10  2008 male   Joey Chestnut         59 TRUE      
# â€¦ with 27 more rows
…
